module course

go 1.18

replace Network => ../Network

require (
	Network v0.0.0-00010101000000-000000000000
	github.com/hajimehoshi/ebiten/v2 v2.0.6
)

require (
	github.com/go-gl/glfw/v3.3/glfw v0.0.0-20200707082815-5321531c36a2 // indirect
	golang.org/x/exp v0.0.0-20190731235908-ec7cb31e5a56 // indirect
	golang.org/x/image v0.0.0-20200927104501-e162460cd6b5 // indirect
	golang.org/x/mobile v0.0.0-20210208171126-f462b3930c8f // indirect
	golang.org/x/sys v0.0.0-20201009025420-dfb3f7c4e634 // indirect
)
